{
    "data": {
        "attribution": {
            "body": "Lightcast's US Automation Index analyzes the potential automation risk of occupations based on job task content—derived from ONET work activities. Combining that data with the Frey and Osborne findings at the occupation level, we identify which job tasks are \"at risk\" and which are resilient. We also incorporate data to identify where occupations cluster in industries facing disruption, and where workers' skills mean their nearest job options are also facing automation risk. This is a 100-based index, meaning that occupations with an automation index above 100 have an above average risk of automation, while occupations with an automation index of below 100 have a below average risk of automation.",
            "title": "Automation Index Data"
        },
        "taxonomies": {
            "soc": "soc_emsi_2017"
        }
    }
}
