{
    "$schema": "http://json-schema.org/draft-07/schema",
    "type": "object",
    "$id": "data.schema.json",
    "properties": {
        "soc-hierarchy-id": {
            "type": "string",
            "minLength": 1
        },
        "attribution": {
            "type": "string",
            "minLength": 1
        },
        "year": {
            "type": "string",
            "pattern": "^[0-9]{4}$"
        },
        "data": {
            "type": "object",
            "patternProperties": {
                "^[0-9]{2}-[0-9]{4}$": {
                    "type": ["number", "null"],
                    "minimum": 0,
                    "maximum": 200
                }
            }
        }
    },
    "required": ["soc-hierarchy-id", "attribution", "year", "data"]
}
