{
    "soc-hierarchy-id": "soc_emsi_2019",
    "attribution": "Lightcast's US Automation Index analyzes the potential automation risk of occupations based on job task content—derived from ONET work activities. Combining that data with the Frey and Osborne findings at the occupation level, we identify which job tasks are \"at risk\" and which are resilient. We also incorporate data to identify where occupations cluster in industries facing disruption, and where workers' skills mean their nearest job options are also facing automation risk. This is a 100-based index, meaning that occupations with an automation index above 100 have an above average risk of automation, while occupations with an automation index of below 100 have a below average risk of automation.",
    "year": "2018",
    "data": {
        "11-1011": 82,
        "11-1021": 82.2,
        "11-1031": null,
        "11-2011": 83,
        "11-2021": 76.7,
        "11-2022": 85.7,
        "11-2031": 85.1,
        "11-3011": 81,
        "11-3021": 79.9,
        "11-3031": 85.8,
        "11-3051": 80.9,
        "11-3061": 88.7,
        "11-3071": 88.2,
        "11-3111": 83.8,
        "11-3121": 84,
        "11-3131": 84.3,
        "11-9013": 93.5,
        "11-9021": 88.6,
        "11-9031": 77.5,
        "11-9032": 79.2,
        "11-9033": 79.6,
        "11-9039": 82.7,
        "11-9041": 80.7,
        "11-9051": 104.4,
        "11-9071": 93,
        "11-9081": 97.3,
        "11-9111": 75.2,
        "11-9121": 76.8,
        "11-9131": 79.1,
        "11-9141": 83.8,
        "11-9151": 85.7,
        "11-9161": 84.6,
        "11-9171": 83.9,
        "11-9198": 84.5,
        "13-1011": 79.6,
        "13-1028": 93.4,
        "13-1031": 89.4,
        "13-1032": 91.2,
        "13-1041": 86.1,
        "13-1051": 96.5,
        "13-1071": 83.8,
        "13-1074": 73.4,
        "13-1075": 78.8,
        "13-1081": 82.1,
        "13-1111": 91.1,
        "13-1121": 90.5,
        "13-1131": 85.8,
        "13-1141": 86.4,
        "13-1151": 88,
        "13-1161": 88.6,
        "13-1198": 86.8,
        "13-2011": 93.1,
        "13-2021": 89.4,
        "13-2031": 91.7,
        "13-2041": 92.2,
        "13-2052": 89.4,
        "13-2053": 95,
        "13-2061": 89.8,
        "13-2071": 92,
        "13-2072": 91.7,
        "13-2081": 92.5,
        "13-2082": 102,
        "13-2098": 89,
        "15-1211": 81.7,
        "15-1212": 86.4,
        "15-1221": 78.5,
        "15-1231": 86.9,
        "15-1232": 82.9,
        "15-1241": 87.1,
        "15-1244": 87.2,
        "15-1245": 88.1,
        "15-1251": 83.3,
        "15-1256": 80.2,
        "15-1257": 88.4,
        "15-1299": 85.5,
        "15-2011": 75,
        "15-2021": 90.4,
        "15-2031": 91.2,
        "15-2041": 90.1,
        "15-2098": 83.4,
        "17-1011": 76.6,
        "17-1012": 88.4,
        "17-1021": 94.2,
        "17-1022": 95.8,
        "17-2011": 77.2,
        "17-2021": 84.6,
        "17-2031": 81.6,
        "17-2041": 91.7,
        "17-2051": 81.7,
        "17-2061": 83.1,
        "17-2071": 84.8,
        "17-2072": 85.4,
        "17-2081": 76.6,
        "17-2111": 84.5,
        "17-2112": 92,
        "17-2121": 84.7,
        "17-2131": 87.3,
        "17-2141": 83.4,
        "17-2151": 81.1,
        "17-2161": 75.7,
        "17-2171": 82,
        "17-2199": 88.2,
        "17-3011": 88.9,
        "17-3012": 91,
        "17-3013": 84.6,
        "17-3019": 87,
        "17-3021": 104.2,
        "17-3022": 92.4,
        "17-3023": 98.6,
        "17-3024": 105.7,
        "17-3025": 92.4,
        "17-3026": 94,
        "17-3027": 109.9,
        "17-3031": 94.3,
        "17-3098": 92.1,
        "19-1011": 73.3,
        "19-1012": 89.3,
        "19-1013": 78.2,
        "19-1021": 74.6,
        "19-1022": 92.3,
        "19-1023": 79,
        "19-1029": 82.2,
        "19-1031": 78.5,
        "19-1032": 76.4,
        "19-1041": 75,
        "19-1042": 78.6,
        "19-1099": 83.5,
        "19-2011": 72.9,
        "19-2012": 72.8,
        "19-2021": 83.2,
        "19-2031": 87.3,
        "19-2032": 74.2,
        "19-2041": 74.6,
        "19-2042": 77.5,
        "19-2043": 83.2,
        "19-2099": 76.4,
        "19-3011": 83.8,
        "19-3022": 81.8,
        "19-3031": 85.4,
        "19-3032": 87,
        "19-3039": 80.2,
        "19-3041": 84.1,
        "19-3051": 104.9,
        "19-3091": 78.7,
        "19-3092": 82,
        "19-3093": 105.3,
        "19-3094": 89.2,
        "19-3099": 86.6,
        "19-4011": 94.8,
        "19-4021": 90.4,
        "19-4031": 104.6,
        "19-4042": 88.5,
        "19-4045": 87.9,
        "19-4051": 91.1,
        "19-4061": 83.7,
        "19-4071": 75.5,
        "19-4092": 94.2,
        "19-4099": 86.8,
        "19-5011": 92.5,
        "19-5012": 94.4,
        "21-1012": 80,
        "21-1013": 79.1,
        "21-1015": 80.2,
        "21-1018": 84.9,
        "21-1019": 80.8,
        "21-1021": 83.7,
        "21-1022": 83.5,
        "21-1023": 81.7,
        "21-1029": 81.9,
        "21-1091": 75.6,
        "21-1092": 78.2,
        "21-1093": 89.4,
        "21-1094": 80.6,
        "21-1099": 81.8,
        "21-2011": 75.3,
        "21-2021": 84.7,
        "21-2099": 81.1,
        "23-1011": 81.1,
        "23-1012": 91.1,
        "23-1021": 90.8,
        "23-1022": 87.8,
        "23-1023": 88.6,
        "23-2011": 89.4,
        "23-2093": 87.3,
        "23-2099": 89.1,
        "25-1099": 86.6,
        "25-2011": 81.5,
        "25-2012": 82.5,
        "25-2021": 82.3,
        "25-2022": 84.5,
        "25-2023": 84.3,
        "25-2031": 84.9,
        "25-2032": 83.6,
        "25-2051": 84.4,
        "25-2052": 83.7,
        "25-2057": 84.2,
        "25-2058": 81.8,
        "25-2059": 77.1,
        "25-3011": 86.7,
        "25-3021": 89,
        "25-3031": 83.3,
        "25-3097": 85.1,
        "25-4011": 91.7,
        "25-4012": 100.8,
        "25-4013": 98.7,
        "25-4022": 96.4,
        "25-4031": 95,
        "25-9021": 90,
        "25-9031": 88.5,
        "25-9044": 86.6,
        "25-9045": 89.7,
        "25-9099": 89.3,
        "27-1011": 81.6,
        "27-1012": 101.3,
        "27-1013": 89.2,
        "27-1014": 72.2,
        "27-1019": 85.6,
        "27-1021": 81.3,
        "27-1022": 82.6,
        "27-1023": 94,
        "27-1024": 80.8,
        "27-1025": 82.9,
        "27-1026": 94.1,
        "27-1027": 89,
        "27-1029": 87.5,
        "27-2011": 112.5,
        "27-2012": 89.1,
        "27-2021": 101.8,
        "27-2022": 79.7,
        "27-2023": 98.1,
        "27-2031": 134.8,
        "27-2032": 86.8,
        "27-2041": 76.4,
        "27-2042": 89.2,
        "27-2099": 91.6,
        "27-3011": 92.3,
        "27-3023": 82.2,
        "27-3031": 90,
        "27-3041": 89.9,
        "27-3042": 93.9,
        "27-3043": 89.8,
        "27-3091": 95.6,
        "27-3092": 97.9,
        "27-3099": 92.8,
        "27-4011": 97.8,
        "27-4012": 96.3,
        "27-4014": 101.4,
        "27-4021": 92.2,
        "27-4031": 99.2,
        "27-4032": 94.1,
        "27-4098": 96.1,
        "29-1011": 81.8,
        "29-1021": 87.9,
        "29-1022": 75.1,
        "29-1023": 91.9,
        "29-1024": 93.6,
        "29-1029": 88.2,
        "29-1031": 84.7,
        "29-1041": 83.2,
        "29-1051": 89.1,
        "29-1071": 87.8,
        "29-1081": 86.6,
        "29-1122": 87.3,
        "29-1123": 85.5,
        "29-1124": 92.7,
        "29-1125": 80.4,
        "29-1126": 93.2,
        "29-1127": 87.5,
        "29-1128": 85.3,
        "29-1129": 86.7,
        "29-1131": 83.1,
        "29-1141": 85.3,
        "29-1151": 90.5,
        "29-1161": 86.3,
        "29-1171": 83.2,
        "29-1181": 96.2,
        "29-1211": 82.1,
        "29-1215": 85.2,
        "29-1216": 83.3,
        "29-1218": 83,
        "29-1221": 82.7,
        "29-1223": 85.8,
        "29-1228": 88.9,
        "29-1248": 84.2,
        "29-1292": 96.8,
        "29-1298": 82.3,
        "29-2018": 97.9,
        "29-2031": 91.7,
        "29-2032": 93.3,
        "29-2033": 95.2,
        "29-2034": 94.1,
        "29-2035": 92.8,
        "29-2041": 83.7,
        "29-2051": 87.2,
        "29-2052": 109.9,
        "29-2053": 79.4,
        "29-2055": 89,
        "29-2056": 90.7,
        "29-2057": 91.4,
        "29-2061": 84.8,
        "29-2081": 92.9,
        "29-2091": 91.1,
        "29-2092": 106.8,
        "29-2098": 92.1,
        "29-9091": 91.7,
        "29-9092": 85.6,
        "29-9098": 89.6,
        "31-1128": 93.6,
        "31-1131": 97,
        "31-1132": 116.6,
        "31-1133": 90.1,
        "31-2011": 87.3,
        "31-2012": 93,
        "31-2021": 88.1,
        "31-2022": 92.4,
        "31-9011": 86.5,
        "31-9091": 97.5,
        "31-9092": 97.3,
        "31-9093": 110.1,
        "31-9094": 100.7,
        "31-9095": 113.1,
        "31-9096": 93.8,
        "31-9097": 104.2,
        "31-9099": 98.4,
        "33-1011": 89.6,
        "33-1012": 84.5,
        "33-1021": 79.6,
        "33-1099": 90.3,
        "33-2011": 100.6,
        "33-2021": 91.9,
        "33-2022": 96,
        "33-3011": 100.5,
        "33-3012": 90.5,
        "33-3021": 94.7,
        "33-3031": 84.3,
        "33-3041": 106.2,
        "33-3051": 94.5,
        "33-3052": 92.2,
        "33-9011": 92,
        "33-9021": 97.3,
        "33-9031": 100.1,
        "33-9032": 109.8,
        "33-9091": 99.4,
        "33-9092": 93.3,
        "33-9093": 96.7,
        "33-9098": 91.2,
        "35-1011": 93.2,
        "35-1012": 107.7,
        "35-2011": 134.1,
        "35-2012": 108.3,
        "35-2013": 103.3,
        "35-2014": 125,
        "35-2015": 128.4,
        "35-2019": 116.2,
        "35-2021": 129.1,
        "35-3011": 121.3,
        "35-3023": 130.8,
        "35-3031": 129.8,
        "35-3041": 118.7,
        "35-9011": 130.6,
        "35-9021": 136.4,
        "35-9031": 117.8,
        "35-9099": 122.2,
        "37-1011": 101.1,
        "37-1012": 101.3,
        "37-2011": 122.5,
        "37-2012": 124.5,
        "37-2019": 123.1,
        "37-2021": 107.2,
        "37-3011": 129.1,
        "37-3012": 126.2,
        "37-3013": 122.8,
        "37-3019": 117.9,
        "39-1013": 100,
        "39-1098": 91.4,
        "39-2011": 98.3,
        "39-2021": 107,
        "39-3011": 110.9,
        "39-3012": 111.2,
        "39-3019": 111.3,
        "39-3021": 103.6,
        "39-3031": 104.3,
        "39-3091": 108.1,
        "39-3092": 94,
        "39-3093": 119.3,
        "39-3099": 106.8,
        "39-4011": 106.4,
        "39-4021": 109.8,
        "39-4031": 99.6,
        "39-5011": 109.3,
        "39-5012": 98,
        "39-5091": 97.5,
        "39-5092": 102.2,
        "39-5093": 112,
        "39-5094": 93.7,
        "39-6011": 113.8,
        "39-6012": 103,
        "39-7018": 96.4,
        "39-9011": 88,
        "39-9031": 84.4,
        "39-9032": 88,
        "39-9041": 94.3,
        "39-9098": 91.8,
        "41-1011": 87.8,
        "41-1012": 81.4,
        "41-2011": 105.5,
        "41-2012": 115.6,
        "41-2021": 100.3,
        "41-2022": 98.7,
        "41-2031": 93.4,
        "41-3011": 95.3,
        "41-3021": 96,
        "41-3031": 92.8,
        "41-3041": 106.8,
        "41-3091": 96.7,
        "41-4011": 93.5,
        "41-4012": 91.5,
        "41-9011": 106.9,
        "41-9012": 115.3,
        "41-9021": 99.2,
        "41-9022": 91.7,
        "41-9031": 85.4,
        "41-9041": 105.8,
        "41-9091": 93.7,
        "41-9099": 96.9,
        "43-1011": 91.8,
        "43-2011": 100.7,
        "43-2021": 94.8,
        "43-2099": 97.2,
        "43-3011": 98.6,
        "43-3021": 98.5,
        "43-3031": 103.6,
        "43-3041": 109.5,
        "43-3051": 101.1,
        "43-3061": 95.1,
        "43-3071": 102.3,
        "43-3099": 98.5,
        "43-4011": 98,
        "43-4021": 102.3,
        "43-4031": 94.6,
        "43-4041": 97.8,
        "43-4051": 96.4,
        "43-4061": 99.4,
        "43-4071": 98.7,
        "43-4081": 104,
        "43-4111": 93.6,
        "43-4121": 97.1,
        "43-4131": 97.3,
        "43-4141": 97.6,
        "43-4151": 97.4,
        "43-4161": 95.8,
        "43-4171": 94.2,
        "43-4181": 94.4,
        "43-4199": 92.7,
        "43-5011": 90.8,
        "43-5021": 105.3,
        "43-5031": 90.6,
        "43-5032": 95.1,
        "43-5041": 114.6,
        "43-5051": 104.6,
        "43-5052": 112.5,
        "43-5053": 111.1,
        "43-5061": 94,
        "43-5071": 109.1,
        "43-5111": 106.2,
        "43-6011": 92.4,
        "43-6012": 98.2,
        "43-6013": 93.1,
        "43-6014": 91.4,
        "43-9021": 103.5,
        "43-9022": 101.2,
        "43-9031": 94.8,
        "43-9041": 100.2,
        "43-9051": 112,
        "43-9061": 102,
        "43-9071": 109.4,
        "43-9081": 95,
        "43-9111": 86.2,
        "43-9199": 87.6,
        "45-1011": 96,
        "45-2011": 94.4,
        "45-2021": 105.8,
        "45-2041": 122.1,
        "45-2091": 102.9,
        "45-2092": 113,
        "45-2093": 107.3,
        "45-2099": 107.7,
        "45-3031": 111.3,
        "45-4011": 111,
        "45-4021": 107.2,
        "45-4022": 108.3,
        "45-4023": 107.3,
        "45-4029": 107.1,
        "47-1011": 106.2,
        "47-2011": 123.4,
        "47-2021": 133.5,
        "47-2022": 134.4,
        "47-2031": 125.9,
        "47-2041": 129.2,
        "47-2042": 139.1,
        "47-2043": 131.2,
        "47-2044": 124,
        "47-2051": 126.6,
        "47-2053": 137,
        "47-2061": 131.9,
        "47-2071": 117.3,
        "47-2072": 128.2,
        "47-2073": 120.3,
        "47-2081": 132.7,
        "47-2082": 132.5,
        "47-2111": 110.3,
        "47-2121": 127.1,
        "47-2131": 129.2,
        "47-2132": 133.9,
        "47-2141": 136.3,
        "47-2142": 136.9,
        "47-2151": 124.9,
        "47-2152": 116.3,
        "47-2161": 130.1,
        "47-2171": 137.2,
        "47-2181": 130.8,
        "47-2211": 117.7,
        "47-2221": 132.2,
        "47-2231": 119.7,
        "47-3011": 133.7,
        "47-3012": 134.5,
        "47-3013": 134.7,
        "47-3014": 135.1,
        "47-3015": 137.3,
        "47-3016": 134.6,
        "47-3019": 129.4,
        "47-4011": 92.7,
        "47-4021": 118.5,
        "47-4031": 124.7,
        "47-4041": 124.2,
        "47-4051": 121.6,
        "47-4061": 119.5,
        "47-4071": 118.6,
        "47-4098": 118.8,
        "47-5011": 106.6,
        "47-5012": 110.9,
        "47-5013": 106.1,
        "47-5022": 116.3,
        "47-5041": 112.2,
        "47-5043": 116.5,
        "47-5044": 118.4,
        "47-5051": 114.7,
        "47-5071": 123.5,
        "47-5081": 118.6,
        "47-5097": 119.8,
        "47-5098": 115.1,
        "49-1011": 94,
        "49-2011": 104.2,
        "49-2021": 109.4,
        "49-2022": 105.1,
        "49-2091": 100,
        "49-2092": 107.9,
        "49-2093": 109,
        "49-2094": 97.3,
        "49-2095": 99.9,
        "49-2096": 109.8,
        "49-2097": 102.9,
        "49-2098": 113.2,
        "49-3011": 101.2,
        "49-3021": 119.3,
        "49-3022": 119.6,
        "49-3023": 105.9,
        "49-3031": 114.6,
        "49-3041": 111.3,
        "49-3042": 109.6,
        "49-3043": 113.7,
        "49-3051": 114.3,
        "49-3052": 109.9,
        "49-3053": 115.8,
        "49-3091": 114.7,
        "49-3092": 110.9,
        "49-3093": 116.3,
        "49-9011": 123.3,
        "49-9012": 109.4,
        "49-9021": 113,
        "49-9031": 105.5,
        "49-9041": 109.8,
        "49-9043": 111.5,
        "49-9044": 120.3,
        "49-9045": 123.9,
        "49-9051": 114,
        "49-9052": 116.9,
        "49-9061": 111,
        "49-9062": 102,
        "49-9063": 121.2,
        "49-9064": 125.1,
        "49-9069": 108.8,
        "49-9071": 109.6,
        "49-9081": 106.3,
        "49-9091": 110.2,
        "49-9092": 109.5,
        "49-9094": 127.8,
        "49-9095": 118.4,
        "49-9096": 120.6,
        "49-9097": 110,
        "49-9098": 117,
        "49-9099": 110.6,
        "51-1011": 88.6,
        "51-2011": 118.7,
        "51-2021": 122.6,
        "51-2028": 110.9,
        "51-2031": 118.7,
        "51-2041": 130.3,
        "51-2051": 120.6,
        "51-2061": 117.2,
        "51-2098": 112.6,
        "51-3011": 121.9,
        "51-3021": 114.4,
        "51-3022": 118.3,
        "51-3023": 129.7,
        "51-3091": 111.9,
        "51-3092": 111.3,
        "51-3093": 114.1,
        "51-3099": 117.6,
        "51-4021": 116.6,
        "51-4022": 121.7,
        "51-4023": 111.7,
        "51-4031": 115.9,
        "51-4032": 118.1,
        "51-4033": 119,
        "51-4034": 121.3,
        "51-4035": 118.4,
        "51-4041": 115.2,
        "51-4051": 117.4,
        "51-4052": 121.1,
        "51-4061": 115.8,
        "51-4062": 115.6,
        "51-4071": 126.5,
        "51-4072": 117,
        "51-4081": 119.1,
        "51-4111": 120.2,
        "51-4121": 121.4,
        "51-4122": 119,
        "51-4191": 114.2,
        "51-4192": 119.7,
        "51-4193": 122,
        "51-4194": 116.3,
        "51-4199": 117.8,
        "51-5111": 102.2,
        "51-5112": 107.3,
        "51-5113": 112,
        "51-6011": 113.2,
        "51-6021": 120.4,
        "51-6031": 123.8,
        "51-6041": 123.2,
        "51-6042": 125.4,
        "51-6051": 120.1,
        "51-6052": 113.1,
        "51-6061": 113.5,
        "51-6062": 119.3,
        "51-6063": 116.5,
        "51-6064": 112.8,
        "51-6091": 115.1,
        "51-6092": 113.3,
        "51-6093": 117.6,
        "51-6099": 119.8,
        "51-7011": 124.3,
        "51-7021": 115.3,
        "51-7031": 127.6,
        "51-7032": 121.8,
        "51-7041": 120.4,
        "51-7042": 119,
        "51-7099": 117.6,
        "51-8011": 92.7,
        "51-8012": 94.7,
        "51-8013": 108.8,
        "51-8021": 109.9,
        "51-8031": 104.1,
        "51-8091": 101.7,
        "51-8092": 101.1,
        "51-8093": 104,
        "51-8099": 110.2,
        "51-9011": 110.4,
        "51-9012": 115.3,
        "51-9021": 116,
        "51-9022": 121.2,
        "51-9023": 117.1,
        "51-9031": 125.6,
        "51-9032": 116.6,
        "51-9041": 117.3,
        "51-9051": 115.5,
        "51-9061": 106.1,
        "51-9071": 116.5,
        "51-9081": 123.3,
        "51-9082": 115,
        "51-9083": 118,
        "51-9111": 116.9,
        "51-9123": 123.5,
        "51-9124": 118.3,
        "51-9141": 108.3,
        "51-9151": 103.1,
        "51-9161": 116,
        "51-9162": 101.7,
        "51-9191": 117.7,
        "51-9192": 118.3,
        "51-9193": 117.6,
        "51-9194": 113.4,
        "51-9195": 121,
        "51-9196": 119.8,
        "51-9197": 125,
        "51-9198": 120,
        "51-9199": 124.7,
        "53-1041": 81.6,
        "53-1047": 93.8,
        "53-2011": 91.5,
        "53-2012": 89.6,
        "53-2021": 90.7,
        "53-2022": 90.9,
        "53-2031": 97,
        "53-3011": 91.8,
        "53-3031": 109.1,
        "53-3032": 110.1,
        "53-3033": 112.9,
        "53-3052": 98,
        "53-3058": 99.9,
        "53-3099": 103.7,
        "53-4011": 94.5,
        "53-4013": 106.9,
        "53-4022": 108.8,
        "53-4031": 98.1,
        "53-4041": 96.1,
        "53-4099": 105.5,
        "53-5011": 106.5,
        "53-5021": 97,
        "53-5022": 105.8,
        "53-5031": 102.2,
        "53-6011": 107.3,
        "53-6021": 107.3,
        "53-6031": 122.9,
        "53-6041": 90.6,
        "53-6051": 102.5,
        "53-6061": 99,
        "53-6098": 108.6,
        "53-7011": 111.5,
        "53-7021": 121.5,
        "53-7031": 122.1,
        "53-7041": 118.5,
        "53-7051": 119.5,
        "53-7061": 123.7,
        "53-7062": 117.2,
        "53-7063": 119.3,
        "53-7064": 123.1,
        "53-7065": 112.3,
        "53-7071": 97.9,
        "53-7072": 105.6,
        "53-7073": 115.1,
        "53-7081": 119.7,
        "53-7121": 112.1,
        "53-7199": 113.1,
        "55-9999": null,
        "99-9999": null
    }
}
